{
  "name": "",
  "acts": [
    {
      "map": {
        "alpha-per-second": 1,
        "background": "mapquest"
      },
      "time": {
        "bounds": {
          "min": null,
          "max": null,
          "loop": 0
        },
        "display": {
          "visible": false,
          "feld": "main",
          "loc": [
            -0.5,
            0.5
          ]
        }
      },
      "zoom": {
        "lat": 54.53365013,
        "lon": -2.7807031,
        "zoom": 20
      },
      "fluoros": [],
      "name": "start",
      "scenes": []
    },
    {
      "zoom": {
        "lat": 51.53365013,
        "lon": -0.1807031,
        "zoom": 4486.94668258
      },
      "name": "london",
      "scenes": [
        {
          "fluoros": [
            {
              "name": "Network",
              "bl": [
                51.509359088216165,
                -0.23592047737580168
              ],
              "tr": [
                51.55405621819988,
                -0.1080680745167717
              ],
              "id": "undefined|Network|1"
            }
          ],
          "name": "Mobile Network"
        },
        {
          "fluoros": [
            {
              "name": "Traffic_Cams",
              "bl": [
                51.46364533385361,
                -0.345659319231173
              ],
              "tr": [
                51.58418160046404,
                -0.000934197240025636
              ],
              "id": "undefined|Traffic_Cams|1"
            }
          ],
          "name": "Traffic Cams"
        },
        {
          "fluoros": [
            {
              "name": "Web Fluoroscope",
              "url": "http://www.tfl.gov.uk/tfl/livetravelnews/trafficcams/cctv/0000107387.jpg",
              "bounds": {
                "bl": [
                  51.54963095937727,
                  -0.23559802888739156
                ],
                "tr": [
                  51.54970033678107,
                  -0.23548646023891173
                ]
              },
              "auto-resize": false,
              "type": "web",
              "id": "camera_8",
              "size": [
                0.5,
                0.5
              ]
            }
          ],
          "name": "Camera View"
        },
        {
          "fluoros": [
            {
              "name": "Tweets",
              "bl": [
                51.52417297072828,
                -0.16942635600910583
              ],
              "tr": [
                51.52724827095632,
                -0.1606308764072839
              ],
              "id": "undefined|Tweets|1"
            },
            {
              "name": "Tweets",
              "bl": [
                51.537866929931795,
                -0.19905737984577954
              ],
              "tr": [
                51.54073234460732,
                -0.19085973442529713
              ],
              "id": "undefined|Tweets|2"
            }
          ],
          "name": "Tweets"
        }
      ]
    },
    {
      "zoom": {
        "zoom": 10000
      },
      "fluoros": [
        {
          "bounds": {
            "bl": [
              51.51202817212983,
              -0.14381055456472502
            ],
            "tr": [
              51.52322910074463,
              -0.10791734978115919
            ]
          },
          "id": "camera_8"
        }
      ],
      "name": "tracking",
      "scenes": [
        {
          "fluoros": [
            {
              "bounds": {
                "bl": [
                  51.51202817212983,
                  -0.14381055456472502
                ],
                "tr": [
                  51.52322910074463,
                  -0.10791734978115919
                ]
              },
              "bl": null,
              "tr": null,
              "id": "camera_8"
            },
            {
              "loc": [
                0,
                0.30000000000000004
              ],
              "windshield": true,
              "name": "Dossier",
              "url": "http://localhost:7787/sluice/profiler",
              "feld": "right",
              "type": "web",
              "size": [
                0.4,
                0.9
              ],
              "id": "web|Dossier|1"
            }
          ],
          "name": "Show Dossier"
        },
        {
          "fluoros": [
            {
              "bounds": {
                "bl": [
                  51.51202817212983,
                  -0.14381055456472502
                ],
                "tr": [
                  51.52322910074463,
                  -0.10791734978115919
                ]
              },
              "bl": null,
              "tr": null,
              "id": "camera_8"
            }
          ],
          "name": "Track Cell Towers"
        },
        {
          "fluoros": [
            {
              "bounds": {
                "bl": [
                  51.51202817212983,
                  -0.14381055456472502
                ],
                "tr": [
                  51.52322910074463,
                  -0.10791734978115919
                ]
              },
              "bl": null,
              "tr": null,
              "id": "camera_8"
            },
            {
              "loc": [
                0,
                0
              ],
              "windshield": true,
              "name": "abbeyroad",
              "url": "http://localhost:7787/sluice/abbeyroad.html",
              "feld": "left",
              "type": "web",
              "size": [
                0.6,
                0.6
              ],
              "id": "web|abbeyroad|1"
            }
          ],
          "name": "Abbey Cam"
        }
      ]
    }
  ],
  "geocode": {}
}
